mc23_13p6TeV.700996.Sh_2214_ttW_1Lfilter.deriv.DAOD_PHYSLITE.e8532_s4159_r15224_p6491
mc23_13p6TeV.700996.Sh_2214_ttW_1Lfilter.deriv.DAOD_PHYSLITE.e8532_s4162_r14622_p6491


mc23_13p6TeV.700997.Sh_2214_ttW_2Lfilter.deriv.DAOD_PHYSLITE.e8532_s4159_r15224_p6491
mc23_13p6TeV.700997.Sh_2214_ttW_2Lfilter.deriv.DAOD_PHYSLITE.e8532_s4162_r14622_p6491


mc23_13p6TeV.522024.aMCPy8EG_NNPDF30NLO_A14N23LO_ttee_run3.deriv.DAOD_PHYSLITE.e8558_s4159_r15224_p6491
mc23_13p6TeV.522024.aMCPy8EG_NNPDF30NLO_A14N23LO_ttee_run3.deriv.DAOD_PHYSLITE.e8558_s4162_r14622_p6491


mc23_13p6TeV.522028.aMCPy8EG_NNPDF30NLO_A14N23LO_ttmumu_run3.deriv.DAOD_PHYSLITE.e8558_s4159_r15224_p6491
mc23_13p6TeV.522028.aMCPy8EG_NNPDF30NLO_A14N23LO_ttmumu_run3.deriv.DAOD_PHYSLITE.e8558_s4162_r14622_p6491


mc23_13p6TeV.522036.aMCPy8EG_NNPDF30NLO_A14N23LO_ttZqq_run3.deriv.DAOD_PHYSLITE.e8558_s4159_r15224_p6491
mc23_13p6TeV.522036.aMCPy8EG_NNPDF30NLO_A14N23LO_ttZqq_run3.deriv.DAOD_PHYSLITE.e8558_s4162_r14622_p6491


mc23_13p6TeV.522032.aMCPy8EG_NNPDF30NLO_A14N23LO_tttautau_run3.deriv.DAOD_PHYSLITE.e8558_s4159_r15224_p6491
mc23_13p6TeV.522032.aMCPy8EG_NNPDF30NLO_A14N23LO_tttautau_run3.deriv.DAOD_PHYSLITE.e8558_s4162_r14622_p6491


mc23_13p6TeV.522040.aMCPy8EG_NNPDF30NLO_A14N23LO_ttZnunu_run3.deriv.DAOD_PHYSLITE.e8558_s4159_r15224_p6491
mc23_13p6TeV.522040.aMCPy8EG_NNPDF30NLO_A14N23LO_ttZnunu_run3.deriv.DAOD_PHYSLITE.e8558_s4162_r14622_p6491
